Roll,Light Battlemech,Medium Battlemech,Heavy Battlemech,Assault Battlemech
2,FS9-K,SCP-1N,CPLT-C1,CGR-1A1
3,STG-3R,ICR-1S,RFL-3N,AWS-8Q
4,HER-1S,HOP-4C,TDR-5S,STC-2C
5,WSP-1A,BJ-1,OTL-4D,VTR-9B
6,STG-3G,WTH-1S,ARC-2R,LGB-0W
7,LCT-1V,SHD-2H,ON1-K,STK-3F
8,THE-N,HBK-4G,WHM-6R,BNC-3E
9,FLC-4N,WVR-6R,OSR-2C,MSK-8B
10,FS9-H,GRF-1N,CHP-1N,RMP-2G
11,FFL-3A,DV-6M,GLT-3N,THG-11E
12,OTT-7J,PXH-2,CRD-2R,BLR-1G
13,TLN-5V,WVE-5N,MAD-1R,HGN-732
14,NTK-2Q,KTO-19,BL-6-KNT,PLG-3Z
15,MCY-99,KY2-D-02,BL-6-KNT,CP-10-Z
16,HSR-200-D,LNX-9Q,EXT-4D,KGC-000